{ "class": "GraphLinksModel",
  "linkFromPortIdProperty": "fromPort",
  "linkToPortIdProperty": "toPort",
  "nodeDataArray": [ 
{"category":"simple", "items":[], "figure":"Rectangle", "simple":true, "entity":false, "color":"#ffff00", "key":"Single Page", "loc":"-389.1116365936776 -319.3615186059304", "group":-13},
{"category":"simple", "items":[], "figure":"Rectangle", "simple":true, "entity":false, "color":"#ffff00", "key":"App Controller", "loc":"-125.8312883122257 -393.4767384963057", "group":-10},
{"category":"simple", "items":[], "figure":"Rectangle", "simple":true, "entity":false, "color":"#ffff00", "key":"Diagram Service", "loc":"49.79817488597865 -95.58644546253868", "group":-11},
{"category":"simple", "items":[], "figure":"Rectangle", "simple":true, "entity":false, "color":"#ffff00", "key":"Storage Gateway", "loc":"171.6989510543446 35.68785151248727", "group":-11},
{"category":"simple", "items":[], "figure":"Rectangle", "simple":true, "entity":false, "color":"#ffff00", "key":"GoJS", "loc":"-35.808644546253845 -182.82507314339176", "group":-11},
{"category":"simple", "items":[], "figure":"Rectangle", "simple":true, "entity":false, "color":"#ffff00", "key":"NodeFactory", "loc":"-76.7665129241417 86.64895105434479", "group":-11},
{"category":"simple", "items":[], "figure":"Rectangle", "simple":true, "entity":false, "color":"#ffff00", "key":"LinkFactory", "loc":"-182.90300055018253 -37.27534592068116", "group":-11},
{"category":"simple", "items":[], "figure":"Rectangle", "simple":true, "entity":false, "color":"#ffff00", "key":"Shared UI", "loc":"324.8981599912078 -291.90150946300673", "group":-14},
{"category":"simple", "items":[], "figure":"Rectangle", "simple":true, "entity":false, "color":"#ffff00", "key":"Event Handler", "loc":"72.31707502403859 -446.02678065980757", "group":-10},
{"text":"Controller", "isGroup":true, "color":"blue", "key":-10, "group":-15},
{"text":"Model", "isGroup":true, "color":"blue", "key":-11, "group":-15},
{"category":"simple", "items":[], "figure":"Database", "simple":false, "entity":false, "color":"#ffff00", "key":"Database", "loc":"506.5161104953705 22.224782630436778"},
{"text":"View", "isGroup":true, "color":"blue", "key":-13},
{"text":"Shared", "isGroup":true, "color":"blue", "key":-14, "group":-15},
{"text":"API Application", "isGroup":true, "color":"blue", "key":-15}
 ],
  "linkDataArray": [ 
{"fromText":"", "toText":"", "fromArrow":"", "toArrow":"Feather", "fill":"white", "from":"App Controller", "fromPort":"", "to":"Diagram Service", "toPort":"", "relType":"6", "linkLabel":"uses", "key":681388437},
{"fromText":"", "toText":"", "fromArrow":"", "toArrow":"Feather", "fill":"white", "from":"App Controller", "fromPort":"", "to":"Event Handler", "toPort":"", "relType":"6", "linkLabel":"includes", "key":-1896187656},
{"fromText":"", "toText":"", "fromArrow":"", "toArrow":"Feather", "fill":"white", "from":"App Controller", "fromPort":"", "to":"Shared UI", "toPort":"", "relType":"6", "linkLabel":"uses", "key":932058498},
{"fromText":"", "toText":"", "fromArrow":"", "toArrow":"Feather", "fill":"white", "from":"Diagram Service", "fromPort":"", "to":"Shared UI", "toPort":"", "relType":"6", "linkLabel":"uses", "key":-439874955},
{"fromText":"", "toText":"", "fromArrow":"", "toArrow":"Feather", "fill":"white", "from":"Diagram Service", "fromPort":"", "to":"GoJS", "toPort":"", "relType":"6", "linkLabel":"uses", "key":-2126870487},
{"fromText":"", "toText":"", "fromArrow":"", "toArrow":"Feather", "fill":"white", "from":"Diagram Service", "fromPort":"", "to":"Storage Gateway", "toPort":"", "relType":"6", "linkLabel":"uses", "key":-999483605},
{"fromText":"", "toText":"", "fromArrow":"", "toArrow":"Feather", "fill":"white", "from":"Storage Gateway", "fromPort":"", "to":"Database", "toPort":"", "relType":"6", "linkLabel":"uses", "key":-472815141},
{"fromText":"", "toText":"", "fromArrow":"", "toArrow":"Feather", "fill":"white", "from":"Single Page", "fromPort":"", "to":"App Controller", "toPort":"", "relType":"6", "linkLabel":"uses", "key":500120544},
{"fromText":"", "toText":"", "fromArrow":"", "toArrow":"Feather", "fill":"white", "from":"Diagram Service", "fromPort":"", "to":"NodeFactory", "toPort":"", "relType":"6", "linkLabel":"uses", "key":-1300600414},
{"fromText":"", "toText":"", "fromArrow":"", "toArrow":"Feather", "fill":"white", "from":"Diagram Service", "fromPort":"", "to":"LinkFactory", "toPort":"", "relType":"6", "linkLabel":"uses", "key":1039021978}
 ]}